Text analysis of Trumpâ€™s tweets confirms he writes only the (angrier) Android half
…
We start by dividing into individual words using the unnest_tokens function (see this vignette for more), and removing some common â€œstopwordsâ€2:

library(tidytext)

reg <- "([^A-Za-z\\d#@']|'(?![A-Za-z\\d#@]))"
tweet_words <- tweets %>%
  filter(!str_detect(text, '^"')) %>%
  mutate(text = str_replace_all(text, "https://t.co/[A-Za-z\\d]+|&amp;", "")) %>%
  unnest_tokens(word, text, token = "regex", pattern = reg) %>%
  filter(!word %in% stop_words$word,
         str_detect(word, "[a-z]"))

tweet_words

## # A tibble: 8,753 x 4
##    id                 source created             word                  
##    <chr>              <chr>  <dttm>              <chr>                 
##  1 676494179216805888 iPhone 2015-12-14 20:09:15 record                
##  2 676494179216805888 iPhone 2015-12-14 20:09:15 health                
##  3 676494179216805888 iPhone 2015-12-14 20:09:15 #makeamericagreatagain
##  4 676494179216805888 iPhone 2015-12-14 20:09:15 #trump2016            
##  5 676509769562251264 iPhone 2015-12-14 21:11:12 accolade              
##  6 676509769562251264 iPhone 2015-12-14 21:11:12 @trumpgolf            
##  7 676509769562251264 iPhone 2015-12-14 21:11:12 highly                
##  8 676509769562251264 iPhone 2015-12-14 21:11:12 respected             
##  9 676509769562251264 iPhone 2015-12-14 21:11:12 golf                  
## 10 676509769562251264 iPhone 2015-12-14 21:11:12 odyssey               
## # â€¦ with 8,743 more rows
…
